[{"name":"Bruno","id":1, "password": "Bruno"},
{"name":"Jo","id":2, "password": "Jo"},
{"name":"Liesje","id":3, "password": "Liesje"},
{"name":"Nelly","id":4, "password": "Nelly"},
{"name":"Sander","id":5, "password": "Sander"}]